%YAML 1.1
%TAG !u! tag:unity3d.com,2011:
--- !u!114 &11400000
MonoBehaviour:
  m_ObjectHideFlags: 0
  m_CorrespondingSourceObject: {fileID: 0}
  m_PrefabInstance: {fileID: 0}
  m_PrefabAsset: {fileID: 0}
  m_GameObject: {fileID: 0}
  m_Enabled: 1
  m_EditorHideFlags: 0
  m_Script: {fileID: 11500000, guid: 4fa341c74ced60c419978719634a0aa3, type: 3}
  m_Name: Jango Fett Equipment
  m_EditorClassIdentifier: 
  savePath: 
  database: {fileID: 11400000, guid: 12cdf3138109dd946b96d9d82a9ddda2, type: 2}
  type: 0
  Container:
    Slots:
    - bodyPart: 0
      AllowedItems: 01000000
      item:
        id: 0
      amount: 0
      database: {fileID: 11400000, guid: 12cdf3138109dd946b96d9d82a9ddda2, type: 2}
    - bodyPart: 1
      AllowedItems: 02000000
      item:
        id: 1
      amount: 1
      database: {fileID: 11400000, guid: 12cdf3138109dd946b96d9d82a9ddda2, type: 2}
    - bodyPart: 2
      AllowedItems: 0200000004000000
      item:
        id: 2
      amount: 1
      database: {fileID: 11400000, guid: 12cdf3138109dd946b96d9d82a9ddda2, type: 2}
    - bodyPart: 3
      AllowedItems: 06000000
      item:
        id: 3
      amount: 0
      database: {fileID: 11400000, guid: 12cdf3138109dd946b96d9d82a9ddda2, type: 2}
    - bodyPart: 4
      AllowedItems: 05000000
      item:
        id: 4
      amount: 0
      database: {fileID: 11400000, guid: 12cdf3138109dd946b96d9d82a9ddda2, type: 2}
  editorCurrentBodyPart: 0
  references:
    version: 1
    00000000:
      type: {class: Item, ns: , asm: Assembly-CSharp}
      data:
        Name: 
        Id: -1
        buffs: []
    00000001:
      type: {class: Item, ns: , asm: Assembly-CSharp}
      data:
        Name: 
        Id: 15
        buffs: []
    00000002:
      type: {class: Item, ns: , asm: Assembly-CSharp}
      data:
        Name: 
        Id: 15
        buffs: []
    00000003:
      type: {class: Item, ns: , asm: Assembly-CSharp}
      data:
        Name: 
        Id: -1
        buffs: []
    00000004:
      type: {class: Item, ns: , asm: Assembly-CSharp}
      data:
        Name: 
        Id: -1
        buffs: []
