%YAML 1.1
%TAG !u! tag:unity3d.com,2011:
--- !u!114 &11400000
MonoBehaviour:
  m_ObjectHideFlags: 0
  m_CorrespondingSourceObject: {fileID: 0}
  m_PrefabInstance: {fileID: 0}
  m_PrefabAsset: {fileID: 0}
  m_GameObject: {fileID: 0}
  m_Enabled: 1
  m_EditorHideFlags: 0
  m_Script: {fileID: 11500000, guid: 528b587c9ac0ca84199461489d117448, type: 3}
  m_Name: Database
  m_EditorClassIdentifier: 
  ItemObjects:
  - {fileID: 11400000, guid: cde94d41f4f6ab84686a8e9a6e95061f, type: 2}
  - {fileID: 11400000, guid: 5fcf799e4dcbf1644996e910d169361d, type: 2}
  - {fileID: 11400000, guid: e5362fa2cbdf3f04a8336f2efa9dc825, type: 2}
  - {fileID: 11400000, guid: 6f3c824703667984b9ab08dcd8fe36b4, type: 2}
  - {fileID: 11400000, guid: 8f947cd0a646cdb4488eb1d677f71ffe, type: 2}
  - {fileID: 11400000, guid: ce0a17f5818296347a871716570e57d8, type: 2}
  - {fileID: 11400000, guid: f83aa415c4e32e84ea03ec8ddb788cef, type: 2}
  - {fileID: 11400000, guid: 91f71c8bdcb00e04fa9b9be5556bcbb2, type: 2}
  - {fileID: 11400000, guid: 1a1c305c54285b34fbfc531d72a81cbc, type: 2}
  - {fileID: 11400000, guid: d667f8156f7fe8b40b55007d780094fd, type: 2}
  - {fileID: 11400000, guid: 89d362338999eb741a4aad8922ecaf4e, type: 2}
  - {fileID: 11400000, guid: 5d31349b4b5b8c6469a9c20036ab507f, type: 2}
  - {fileID: 11400000, guid: 09bea86bf9b9cb64b9aabb9c6d7d7627, type: 2}
  - {fileID: 11400000, guid: f143f4b872c218d4ea389429df0c65ab, type: 2}
  - {fileID: 11400000, guid: dc01c36fd8f430847a90e7ff6426b671, type: 2}
  - {fileID: 11400000, guid: 43d6ea91b4a54a14fbe34bf5f99656ec, type: 2}
