%YAML 1.1
%TAG !u! tag:unity3d.com,2011:
--- !u!114 &11400000
MonoBehaviour:
  m_ObjectHideFlags: 0
  m_CorrespondingSourceObject: {fileID: 0}
  m_PrefabInstance: {fileID: 0}
  m_PrefabAsset: {fileID: 0}
  m_GameObject: {fileID: 0}
  m_Enabled: 1
  m_EditorHideFlags: 0
  m_Script: {fileID: 11500000, guid: 36c92f6916f51c84180ccd6986ebd922, type: 3}
  m_Name: helm 1
  m_EditorClassIdentifier: 
  uiDisplay: {fileID: -7296337056529428220, guid: d07b803c54ae9fb4ebfc1e8a13b12f4c, type: 3}
  characterDisplay: {fileID: 470104188159801518, guid: 67be9bf53ab4d1c4d8c63610bee579e0, type: 3}
  stackable: 0
  type: 1
  description: 
  data:
    Name: 
    Id: 5
    buffs:
    - attribute: 2
      value: 0
      min: 1
      max: 100
  boneNames:
  - bone_21
  - bone_3
  - bone_32
  - bone_22
